<?xml version="1.0" encoding="UTF-8"?>
<session version="1.0">
<refactoring comment="Rename Java project &apos;restaurant&apos; to &apos;TEMA4&apos;&#x0D;&#x0A;- Original element: &apos;restaurant&apos;&#x0D;&#x0A;- Renamed element: &apos;restaurant&apos;&#x0D;&#x0A;- Update references to refactored element" description="Rename Java project &apos;restaurant&apos;" flags="7" id="org.eclipse.jdt.ui.rename.java.project" input="=restaurant" name="TEMA4" references="true" stamp="1557474799677" version="1.0"/>
</session>